{
  "project_info": {
    "project_number": "487786799791",
    "project_id": "teamjaune-projm2",
    "storage_bucket": "teamjaune-projm2.appspot.com"
  },
  "client": [
    {
      "client_info": {
        "mobilesdk_app_id": "1:487786799791:android:023e9fd1c06e846f186a5a",
        "android_client_info": {
          "package_name": "com.teamjaune.androidclient"
        }
      },
      "oauth_client": [
        {
          "client_id": "487786799791-hu7jsv3rl6hco9absn9mejudriijbl63.apps.googleusercontent.com",
          "client_type": 3
        }
      ],
      "api_key": [
        {
          "current_key": "AIzaSyDnHPyvlo8Oiilmd8icSG-VkCM6fbDCxAI"
        }
      ],
      "services": {
        "appinvite_service": {
          "other_platform_oauth_client": [
            {
              "client_id": "487786799791-hu7jsv3rl6hco9absn9mejudriijbl63.apps.googleusercontent.com",
              "client_type": 3
            }
          ]
        }
      }
    }
  ],
  "configuration_version": "1"
}